Sample ID,Stage/Organ,Read length,PE/SE,Read number,Base pairs,Origin,Accession,%gDNA_unique,%gDNA_multi
Embr_32cells,32 cells,50,SE,7,780,414,389,020,700,BL/RIKEN,This study,35.04,34.19
Embr_8h,8 hpf,50,SE,27,837,581,1,391,879,050,BL/RIKEN,This study,33.56,30.76
Embr_15h,15 hpf,50,SE,20,280,947,1,014,047,350,BL/RIKEN,This study,38.26,27.9
Fem_Gonads,Female Gonads,50,SE,24,458,864,1,222,943,200,BL/RIKEN,This study,39.91,14.57
Hepatic,Hepatic diverticulum,50,SE,17,684,847,884,242,350,BL/RIKEN,This study,30.8,36.65
NeuralTube,Neural tube,50,SE,5,087,538,254,376,900,BL/RIKEN,This study,39.86,29.17
Muscle,Muscle,50,SE,1,348,544,67,427,200,BL/RIKEN,This study,20.65,56.43